[
  {
    "response": {
      "status": "ok",
      "userTier": "developer",
      "total": 172288,
      "startIndex": 11,
      "pageSize": 10,
      "currentPage": 2,
      "pages": 17229,
      "orderBy": "relevance",
      "results": [
        {
          "id": "business/2025/jan/25/the-heathrow-runway-row-is-back-as-debate-over-airport-growth-gets-noisier",
          "type": "article",
          "sectionId": "business",
          "sectionName": "Business",
          "webPublicationDate": "2025-01-25T13:00:21Z",
          "webTitle": "The Heathrow runway row is back as debate over airport growth gets noisier",
          "webUrl": "https://www.theguardian.com/business/2025/jan/25/the-heathrow-runway-row-is-back-as-debate-over-airport-growth-gets-noisier",
          "apiUrl": "https://content.guardianapis.com/business/2025/jan/25/the-heathrow-runway-row-is-back-as-debate-over-airport-growth-gets-noisier",
          "isHosted": false,
          "pillarId": "pillar/news",
          "pillarName": "News"
        },
        {
          "id": "commentisfree/2025/jan/11/migration-debate-birth-baby-boy-refugee-boat",
          "type": "article",
          "sectionId": "commentisfree",
          "sectionName": "Opinion",
          "webPublicationDate": "2025-01-11T07:00:05Z",
          "webTitle": "The image that speaks a thousand words about our inhumane migration debate | Rhiannon Lucy Cosslett",
          "webUrl": "https://www.theguardian.com/commentisfree/2025/jan/11/migration-debate-birth-baby-boy-refugee-boat",
          "apiUrl": "https://content.guardianapis.com/commentisfree/2025/jan/11/migration-debate-birth-baby-boy-refugee-boat",
          "isHosted": false,
          "pillarId": "pillar/opinion",
          "pillarName": "Opinion"
        },
        {
          "id": "science/2024/dec/18/ancient-bones-debate-origins-of-syphilis-americas-europe",
          "type": "article",
          "sectionId": "science",
          "sectionName": "Science",
          "webPublicationDate": "2024-12-18T16:00:03Z",
          "webTitle": "Ancient bones shed new light on debate over origins of syphilis",
          "webUrl": "https://www.theguardian.com/science/2024/dec/18/ancient-bones-debate-origins-of-syphilis-americas-europe",
          "apiUrl": "https://content.guardianapis.com/science/2024/dec/18/ancient-bones-debate-origins-of-syphilis-americas-europe",
          "isHosted": false,
          "pillarId": "pillar/news",
          "pillarName": "News"
        },
        {
          "id": "film/2024/dec/16/berlin-film-festival-berlinale-tricia-tuttle-israel-gaza",
          "type": "article",
          "sectionId": "film",
          "sectionName": "Film",
          "webPublicationDate": "2024-12-16T11:42:58Z",
          "webTitle": "German position on Israel-Gaza debate ‘putting artists off’ film festival",
          "webUrl": "https://www.theguardian.com/film/2024/dec/16/berlin-film-festival-berlinale-tricia-tuttle-israel-gaza",
          "apiUrl": "https://content.guardianapis.com/film/2024/dec/16/berlin-film-festival-berlinale-tricia-tuttle-israel-gaza",
          "isHosted": false,
          "pillarId": "pillar/arts",
          "pillarName": "Arts"
        },
        {
          "id": "politics/2024/nov/29/vote-on-assisted-dying-summons-ultra-rare-commons-sight-intelligent-debate",
          "type": "article",
          "sectionId": "politics",
          "sectionName": "Politics",
          "webPublicationDate": "2024-11-29T18:01:05Z",
          "webTitle": "Vote on assisted dying summons ultra-rare Commons sight: intelligent debate | John Crace",
          "webUrl": "https://www.theguardian.com/politics/2024/nov/29/vote-on-assisted-dying-summons-ultra-rare-commons-sight-intelligent-debate",
          "apiUrl": "https://content.guardianapis.com/politics/2024/nov/29/vote-on-assisted-dying-summons-ultra-rare-commons-sight-intelligent-debate",
          "isHosted": false,
          "pillarId": "pillar/news",
          "pillarName": "News"
        }
      ]
    }
  }
]
